<?xml version="1.0" encoding="UTF-8" standalone="no"?>
<!-- Created with Inkscape (http://www.inkscape.org/) -->

<svg
   width="25mm"
   height="25mm"
   viewBox="0 0 24.999998 25"
   version="1.1"
   id="svg5"
   inkscape:version="1.2.1 (9c6d41e410, 2022-07-14)"
   sodipodi:docname="weather.svg"
   inkscape:export-filename="../icons/rain-1.png"
   inkscape:export-xdpi="121.92"
   inkscape:export-ydpi="121.92"
   xmlns:inkscape="http://www.inkscape.org/namespaces/inkscape"
   xmlns:sodipodi="http://sodipodi.sourceforge.net/DTD/sodipodi-0.dtd"
   xmlns:xlink="http://www.w3.org/1999/xlink"
   xmlns="http://www.w3.org/2000/svg"
   xmlns:svg="http://www.w3.org/2000/svg"
   xmlns:rdf="http://www.w3.org/1999/02/22-rdf-syntax-ns#"
   xmlns:cc="http://creativecommons.org/ns#">
  <sodipodi:namedview
     id="namedview7"
     pagecolor="#ffffff"
     bordercolor="#666666"
     borderopacity="1.0"
     inkscape:showpageshadow="2"
     inkscape:pageopacity="0.0"
     inkscape:pagecheckerboard="0"
     inkscape:deskcolor="#d1d1d1"
     inkscape:document-units="mm"
     showgrid="false"
     inkscape:zoom="1.4614364"
     inkscape:cx="42.424015"
     inkscape:cy="274.04545"
     inkscape:window-width="3836"
     inkscape:window-height="2121"
     inkscape:window-x="0"
     inkscape:window-y="35"
     inkscape:window-maximized="1"
     inkscape:current-layer="layer1"
     showguides="true">
    <sodipodi:guide
       position="12.499999,12.499999"
       orientation="-1,0"
       id="guide275"
       inkscape:locked="false"
       inkscape:label=""
       inkscape:color="rgb(0,134,229)" />
    <sodipodi:guide
       position="3.8306888,12.499999"
       orientation="0,1"
       id="guide327"
       inkscape:locked="false"
       inkscape:label=""
       inkscape:color="rgb(0,134,229)" />
    <sodipodi:guide
       position="17.365358,8.4999996"
       orientation="0,1"
       id="guide4264"
       inkscape:locked="false"
       inkscape:label=""
       inkscape:color="rgb(0,134,229)" />
    <sodipodi:guide
       position="6.4999997,3.7493454"
       orientation="-1,0"
       id="guide10188"
       inkscape:locked="false"
       inkscape:label=""
       inkscape:color="rgb(0,134,229)" />
    <sodipodi:guide
       position="17.499999,0"
       orientation="-1,0"
       id="guide10307"
       inkscape:locked="false"
       inkscape:label=""
       inkscape:color="rgb(0,134,229)" />
  </sodipodi:namedview>
  <defs
     id="defs2">
    <rect
       x="11.350294"
       y="66.944127"
       width="73.537429"
       height="25.044717"
       id="rect2537" />
  </defs>
  <g
     inkscape:label="Ebene 1"
     inkscape:groupmode="layer"
     id="layer1"
     style="display:inline">
    <rect
       style="opacity:1;fill:#ffffff;fill-opacity:1;stroke:#000000;stroke-width:1;stroke-miterlimit:4;stroke-dasharray:none;stroke-opacity:1"
       id="rect1685"
       width="10.999999"
       height="4.4875097"
       x="45.07"
       y="35.986778" />
    <circle
       style="opacity:1;fill:#ffffff;fill-opacity:1;stroke:#000000;stroke-width:1;stroke-miterlimit:4;stroke-dasharray:none;stroke-opacity:1"
       id="ellipse899"
       cx="44.56982"
       cy="36.974289"
       r="3.5" />
    <circle
       style="opacity:1;fill:#ffffff;fill-opacity:1;stroke:#000000;stroke-width:1;stroke-miterlimit:4;stroke-dasharray:none;stroke-opacity:1"
       id="circle1629"
       cx="56.07539"
       cy="35.974289"
       r="4.5" />
    <circle
       style="opacity:1;fill:#ffffff;fill-opacity:1;stroke:#000000;stroke-width:0.999998;stroke-miterlimit:4;stroke-dasharray:none;stroke-opacity:1"
       id="path111"
       cx="49.57"
       cy="32.973999"
       r="5.500001" />
    <text
       xml:space="preserve"
       style="font-style:normal;font-weight:normal;font-size:10.5833px;line-height:1.25;font-family:sans-serif;letter-spacing:0px;word-spacing:0px;fill:#000000;fill-opacity:1;stroke:none;stroke-width:0.264583"
       x="-142.01924"
       y="77.404419"
       id="text3073"><tspan
         sodipodi:role="line"
         style="stroke-width:0.264583"
         x="-142.01924"
         y="77.404419"
         id="tspan3077" /></text>
  </g>
  <g
     inkscape:groupmode="layer"
     id="layer13"
     inkscape:label="background"
     style="display:inline">
    <rect
       style="display:inline;fill:#ffffff;fill-opacity:1;stroke:none;stroke-width:1;stroke-linecap:butt;stroke-linejoin:round;stroke-dasharray:none;stroke-dashoffset:0;stroke-opacity:1"
       id="rect11872"
       width="25"
       height="25"
       x="0"
       y="-1.6653345e-16" />
  </g>
  <g
     inkscape:groupmode="layer"
     id="layer:sun-0"
     inkscape:label="sun-0"
     style="display:inline"
     sodipodi:insensitive="true">
    <path
       id="ellipse899-3"
       style="display:inline;fill:#ffffff;fill-opacity:1;stroke:#000000;stroke-width:1;stroke-linecap:round;stroke-linejoin:miter;stroke-miterlimit:4;stroke-dasharray:none;stroke-opacity:1"
       d="m 18.005801,16.000757 c 2.48547,-9e-6 4.50026,-2.01503 4.49999,-4.5005 -10e-6,-2.485269 -2.01472,-4.499975 -4.49999,-4.499984 -0.39595,0.0011 -0.79003,0.05443 -1.17202,0.158646 C 16.219111,4.714151 14.021111,3.000216 11.500261,3 h -10e-6 c -3.0377,4.3e-5 -5.500161,2.462732 -5.499919,5.50044 10e-4,0.17813 0.01066,0.356107 0.02894,0.5333 C 4.294565,9.269186 3.000615,10.7501 3,12.500712 c -2.5e-5,1.933031 1.567013,3.500069 3.500044,3.500045 z"
       sodipodi:nodetypes="ccccccccccc" />
  </g>
  <g
     inkscape:groupmode="layer"
     id="layer:sun-1"
     inkscape:label="sun-1"
     style="display:inline">
    <g
       id="g16835-3"
       transform="matrix(0.71152244,0,0,0.71152244,6.0783067,-24.514083)"
       style="stroke-width:1.40543">
      <circle
         style="opacity:1;fill:#ffffff;fill-opacity:1;stroke:#000000;stroke-width:1.40543;stroke-miterlimit:4;stroke-dasharray:none;stroke-opacity:1"
         id="circle16790-6"
         cx="16.593248"
         cy="44.452923"
         r="3.5" />
      <path
         style="fill:none;stroke:#000000;stroke-width:1.40543;stroke-linecap:butt;stroke-linejoin:miter;stroke-dasharray:none;stroke-opacity:1"
         d="m 16.593248,34.453 v 4"
         id="path16792-7" />
      <path
         style="fill:none;stroke:#000000;stroke-width:1.40543;stroke-linecap:butt;stroke-linejoin:miter;stroke-dasharray:none;stroke-opacity:1"
         d="m 23.664316,37.381932 -2.828427,2.828427"
         id="path16800-3" />
      <path
         style="fill:none;stroke:#000000;stroke-width:1.40543;stroke-linecap:butt;stroke-linejoin:miter;stroke-dasharray:none;stroke-opacity:1"
         d="m 26.593248,44.453 h -4"
         id="path16806-6" />
      <path
         style="fill:none;stroke:#000000;stroke-width:1.40543;stroke-linecap:butt;stroke-linejoin:miter;stroke-dasharray:none;stroke-opacity:1"
         d="M 23.664316,51.524068 20.835889,48.695641"
         id="path16812-9" />
      <path
         style="fill:none;stroke:#000000;stroke-width:1.40543;stroke-linecap:butt;stroke-linejoin:miter;stroke-dasharray:none;stroke-opacity:1"
         d="M 12.350607,40.210359 9.5221802,37.381932"
         id="path16814-1" />
    </g>
    <path
       id="ellipse899-3-6"
       style="display:inline;fill:#ffffff;fill-opacity:1;stroke:#000000;stroke-width:0.999995;stroke-linecap:round;stroke-linejoin:miter;stroke-miterlimit:4;stroke-dasharray:none;stroke-opacity:1"
       d="m 17.378219,16.000002 c 2.298704,-8e-6 4.162097,-1.85992 4.161849,-4.154066 -1.1e-5,-2.2939631 -1.86333,-4.153584 -4.161849,-4.1535923 -0.366198,0.00102 -0.730666,0.05024 -1.083951,0.146434 C 15.725785,5.5821992 13.69295,4.0001968 11.361523,3.9999975 h -8e-6 c -2.8094389,3.97e-5 -5.0868636,2.2731596 -5.0866397,5.0770356 9.247e-4,0.1644182 0.00986,0.3286952 0.026766,0.4922488 -1.6043561,0.217322 -2.801075,1.5842411 -2.8016438,3.2000961 -2.31e-5,1.784234 1.4492633,3.230646 3.2370408,3.230624 z"
       sodipodi:nodetypes="ccccccccccc" />
  </g>
  <g
     inkscape:groupmode="layer"
     id="layer:sun-1-night"
     inkscape:label="sun-1-night"
     style="display:inline">
    <path
       id="path6266-2"
       style="display:inline;fill:#ffffff;fill-opacity:1;stroke:#000000;stroke-width:1;stroke-linecap:butt;stroke-linejoin:round;stroke-dasharray:none;stroke-dashoffset:0;stroke-opacity:1"
       d="M 17.411567,2.9999691 A 4.8978332,4.897433 0 0 1 18.63247,6.2356207 4.8978332,4.897433 0 0 1 13.734936,11.132755 4.8978332,4.897433 0 0 1 10.499969,9.9087879 5.8161769,5.8157017 0 0 0 16.183703,14.500009 5.8161769,5.8157017 0 0 0 22,8.6841875 5.8161769,5.8157017 0 0 0 17.411567,2.9999691 Z" />
    <path
       id="ellipse899-3-6-62"
       style="display:inline;fill:#ffffff;fill-opacity:1;stroke:#000000;stroke-width:0.999995;stroke-linecap:round;stroke-linejoin:miter;stroke-miterlimit:4;stroke-dasharray:none;stroke-opacity:1"
       d="m 17.378219,16.000002 c 2.298704,-8e-6 4.162097,-1.85992 4.161849,-4.154066 -1.1e-5,-2.2939631 -1.86333,-4.153584 -4.161849,-4.1535923 -0.366198,0.00102 -0.730666,0.05024 -1.083951,0.146434 C 15.725785,5.5821992 13.69295,4.0001968 11.361523,3.9999975 h -8e-6 c -2.8094389,3.97e-5 -5.0868636,2.2731596 -5.0866397,5.0770356 9.247e-4,0.1644182 0.00986,0.3286952 0.026766,0.4922488 -1.6043561,0.217322 -2.801075,1.5842411 -2.8016438,3.2000961 -2.31e-5,1.784234 1.4492633,3.230646 3.2370408,3.230624 z"
       sodipodi:nodetypes="ccccccccccc" />
  </g>
  <g
     inkscape:groupmode="layer"
     id="layer:sun-2"
     inkscape:label="sun-2"
     style="display:inline">
    <g
       id="g16835"
       transform="matrix(0.8,0,0,0.8,-0.7745984,-25.0624)"
       style="stroke-width:1.25">
      <circle
         style="opacity:1;fill:#ffffff;fill-opacity:1;stroke:#000000;stroke-width:1.25;stroke-miterlimit:4;stroke-dasharray:none;stroke-opacity:1"
         id="circle16790"
         cx="16.593248"
         cy="44.452923"
         r="3.5" />
      <path
         style="fill:none;stroke:#000000;stroke-width:1.25;stroke-linecap:butt;stroke-linejoin:round;stroke-dasharray:none;stroke-opacity:1"
         d="m 16.593248,34.453 v 4"
         id="path16792" />
      <path
         style="fill:none;stroke:#000000;stroke-width:1.25;stroke-linecap:butt;stroke-linejoin:round;stroke-dasharray:none;stroke-opacity:1"
         d="m 16.593248,50.453 v 4"
         id="path16794" />
      <path
         style="fill:none;stroke:#000000;stroke-width:1.25;stroke-linecap:butt;stroke-linejoin:round;stroke-dasharray:none;stroke-opacity:1"
         d="m 23.664316,37.381932 -2.828427,2.828427"
         id="path16800" />
      <path
         style="fill:none;stroke:#000000;stroke-width:1.25;stroke-linecap:butt;stroke-linejoin:round;stroke-dasharray:none;stroke-opacity:1"
         d="M 12.350607,48.695641 9.5221802,51.524068"
         id="path16802" />
      <path
         style="fill:none;stroke:#000000;stroke-width:1.25;stroke-linecap:butt;stroke-linejoin:round;stroke-dasharray:none;stroke-opacity:1"
         d="m 26.593248,44.453 h -4"
         id="path16806" />
      <path
         style="fill:none;stroke:#000000;stroke-width:1.25;stroke-linecap:butt;stroke-linejoin:round;stroke-dasharray:none;stroke-opacity:1"
         d="m 10.593248,44.453 h -4"
         id="path16808" />
      <path
         style="fill:none;stroke:#000000;stroke-width:1.25;stroke-linecap:butt;stroke-linejoin:round;stroke-dasharray:none;stroke-opacity:1"
         d="M 23.664316,51.524068 20.835889,48.695641"
         id="path16812" />
      <path
         style="fill:none;stroke:#000000;stroke-width:1.25;stroke-linecap:butt;stroke-linejoin:round;stroke-dasharray:none;stroke-opacity:1"
         d="M 12.350607,40.210359 9.5221802,37.381932"
         id="path16814" />
    </g>
  </g>
  <g
     inkscape:groupmode="layer"
     id="layer:sun-2-night"
     inkscape:label="sun-2-night"
     style="display:inline">
    <path
       id="path6266"
       style="display:inline;fill:#ffffff;fill-opacity:1;stroke:#000000;stroke-width:1;stroke-linecap:butt;stroke-linejoin:round;stroke-dasharray:none;stroke-dashoffset:0;stroke-opacity:1"
       d="M 13.611063,4.9999691 A 4.6848845,4.6844997 0 0 1 14.778885,8.0949393 4.6848845,4.6844997 0 0 1 10.094286,12.779153 4.6848845,4.6844997 0 0 1 6.9999692,11.608402 5.5633004,5.5628434 0 0 0 12.436584,16.000004 5.5633004,5.5628434 0 0 0 18,10.437046 5.5633004,5.5628434 0 0 0 13.611063,4.9999691 Z" />
  </g>
  <g
     inkscape:groupmode="layer"
     id="layer:fog-1"
     inkscape:label="fog-1"
     style="display:inline">
    <g
       id="g6048"
       transform="translate(-0.3391978,-0.143057)"
       style="stroke:#808080;stroke-opacity:1">
      <path
         style="fill:none;stroke:#808080;stroke-width:1;stroke-linecap:butt;stroke-linejoin:miter;stroke-dasharray:none;stroke-dashoffset:0;stroke-opacity:1"
         d="M 2.8391978,22.642967 H 17.839199"
         id="path5923" />
      <path
         style="fill:none;stroke:#808080;stroke-width:1;stroke-linecap:butt;stroke-linejoin:miter;stroke-dasharray:none;stroke-dashoffset:0;stroke-opacity:1"
         d="M 7.839,19.643057 H 22.839001"
         id="path5925" />
    </g>
  </g>
  <g
     inkscape:groupmode="layer"
     id="layer:wind-2"
     inkscape:label="wind-2"
     style="display:inline;stroke:#c0c0c0;stroke-opacity:1">
    <g
       id="g416"
       transform="translate(0,-0.057693)"
       style="fill:#595959;fill-opacity:1;stroke:#bfbfbf">
      <path
         id="path13884"
         style="color:#000000;fill:#595959;fill-opacity:1;stroke:none;stroke-linecap:square;stroke-linejoin:round;-inkscape-stroke:none"
         d="m 19.999813,19.0586 c -0.458061,0 -0.865802,0.189264 -1.122929,0.480591 -0.257127,0.291329 -0.372146,0.659125 -0.371037,1.019576 0.0011,0.360451 0.118404,0.727263 0.375171,1.017509 0.256767,0.290246 0.662643,0.482141 1.118795,0.482141 l 3.000333,-0.0015 v -0.999939 l -3.000333,0.0016 c -0.203491,0 -0.293992,-0.05943 -0.36897,-0.144177 -0.07498,-0.08475 -0.124627,-0.218053 -0.125057,-0.357601 -4.29e-4,-0.139548 0.04708,-0.271863 0.120923,-0.355534 0.07385,-0.08367 0.165369,-0.142627 0.373104,-0.142627 h 0.500228 V 19.0586 Z m 4.000272,1.997811 v 0.999939 h 0.499712 0.500227 v -0.999939 h -0.500227 z" />
      <g
         id="g10897"
         transform="translate(1.198184,0.46974669)"
         style="fill:#595959;fill-opacity:1">
        <path
           style="color:#000000;fill:#595959;fill-opacity:1;stroke:none;stroke-linecap:square;stroke-linejoin:round;-inkscape-stroke:none"
           d="m 16.302734,22.587891 v 1 h 0.5 3.5 0.5 v -1 h -0.5 -3.5 z"
           id="path989" />
        <path
           style="color:#000000;fill:#595959;fill-opacity:1;stroke:none;-inkscape-stroke:none"
           d="m 21.802734,22.587891 v 1 h 1 v -1 z"
           id="path986" />
      </g>
    </g>
  </g>
  <g
     inkscape:groupmode="layer"
     id="layer:wind-1"
     inkscape:label="wind-1"
     style="display:inline">
    <g
       id="g416-3"
       transform="translate(0,-0.057693)"
       style="display:inline;fill:#595959;fill-opacity:1;stroke:#c0c0c0;stroke-opacity:1">
      <path
         id="path13884-6"
         style="color:#000000;fill:#595959;fill-opacity:1;stroke:none;stroke-linecap:square;stroke-linejoin:round;-inkscape-stroke:none"
         d="m 24.000085,21.056411 v 1.000456 h 0.499712 0.500227 v -1.000456 h -0.500227 z m -0.999939,5.17e-4 -4.000272,0.0016 h -0.499711 v 0.999939 h 0.499711 l 4.000272,-0.001 z" />
      <g
         id="g10897-7"
         transform="translate(1.198184,0.46974669)"
         style="fill:#595959;fill-opacity:1">
        <path
           style="color:#000000;fill:#595959;fill-opacity:1;stroke:none;stroke-linecap:square;stroke-linejoin:round;-inkscape-stroke:none"
           d="m 16.302734,22.587891 v 1 h 0.5 3.5 0.5 v -1 h -0.5 -3.5 z"
           id="path13886-5" />
        <path
           style="color:#000000;fill:#595959;fill-opacity:1;stroke:none;-inkscape-stroke:none"
           d="m 21.802734,22.587891 v 1 h 1 v -1 z"
           id="path3916-3" />
      </g>
    </g>
  </g>
  <g
     inkscape:groupmode="layer"
     id="layer:finedust-1"
     inkscape:label="finedust-1"
     style="display:inline;stroke:#c0c0c0;stroke-width:0.826976;stroke-opacity:1"
     transform="matrix(1.2031989,0,0,1.2152835,-6.5680194,-12.044317)">
    <g
       id="g2481"
       transform="translate(1.4129002,-1.6565265)">
      <rect
         style="fill:#000000;fill-opacity:1;stroke:none;stroke-width:0.826975"
         id="rect506"
         width="0.83111775"
         height="0.82285327"
         x="11.941517"
         y="20.207191" />
      <rect
         style="fill:#000000;fill-opacity:1;stroke:none;stroke-width:0.826975"
         id="rect2468"
         width="0.83111775"
         height="0.82285327"
         x="9.8637218"
         y="20.207191" />
      <rect
         style="fill:#000000;fill-opacity:1;stroke:none;stroke-width:0.826975"
         id="rect2470"
         width="0.83111775"
         height="0.82285327"
         x="9.0326042"
         y="22.615936" />
      <rect
         style="fill:#000000;fill-opacity:1;stroke:none;stroke-width:0.826975"
         id="rect2472"
         width="0.83111775"
         height="0.82285327"
         x="10.861063"
         y="22.615936" />
      <rect
         style="fill:#000000;fill-opacity:1;stroke:none;stroke-width:0.826975"
         id="rect2474"
         width="0.83111775"
         height="0.82285327"
         x="12.772635"
         y="22.615936" />
    </g>
    <text
       xml:space="preserve"
       transform="matrix(0.21989991,0,0,0.21771326,5.4587977,9.9107056)"
       id="text2535"
       style="white-space:pre;shape-inside:url(#rect2537);display:inline;fill:none;fill-opacity:1;stroke:#000000;stroke-width:3.77953;stroke-opacity:1" />
    <text
       xml:space="preserve"
       style="font-style:normal;font-variant:normal;font-weight:normal;font-stretch:normal;font-size:4.66782px;font-family:Lato;-inkscape-font-specification:'Lato, Normal';font-variant-ligatures:normal;font-variant-caps:normal;font-variant-numeric:normal;font-variant-east-asian:normal;fill:#595959;fill-opacity:1;stroke:none;stroke-width:0.826976;stroke-opacity:1"
       x="8.3084383"
       y="28.526459"
       id="text2648"
       transform="scale(1.0050093,0.99501566)"><tspan
         sodipodi:role="line"
         id="tspan3812"
         x="8.3084383"
         y="28.526459">PM 2,5</tspan></text>
    <g
       id="g416-8"
       transform="matrix(0.83111779,0,0,0.82285328,2.1343264,2.0453801)"
       style="display:inline;fill:#595959;fill-opacity:1;stroke:none;stroke-opacity:1">
      <path
         id="path13884-8"
         style="color:#000000;fill:#595959;fill-opacity:1;stroke:none;stroke-linecap:square;stroke-linejoin:round;-inkscape-stroke:none"
         d="m 19.999813,19.0586 c -0.458061,0 -0.865802,0.189264 -1.122929,0.480591 -0.257127,0.291329 -0.372146,0.659125 -0.371037,1.019576 0.0011,0.360451 0.118404,0.727263 0.375171,1.017509 0.256767,0.290246 0.662643,0.482141 1.118795,0.482141 l 3.000333,-0.0015 v -0.999939 l -3.000333,0.0016 c -0.203491,0 -0.293992,-0.05943 -0.36897,-0.144177 -0.07498,-0.08475 -0.124627,-0.218053 -0.125057,-0.357601 -4.29e-4,-0.139548 0.04708,-0.271863 0.120923,-0.355534 0.07385,-0.08367 0.165369,-0.142627 0.373104,-0.142627 h 0.500228 V 19.0586 Z m 4.000272,1.997811 v 0.999939 h 0.499712 0.500227 v -0.999939 h -0.500227 z" />
      <g
         id="g10897-5"
         transform="translate(1.198184,0.46974669)"
         style="fill:#595959;fill-opacity:1;stroke:none;stroke-opacity:1">
        <path
           style="color:#000000;fill:#595959;fill-opacity:1;stroke:none;stroke-linecap:square;stroke-linejoin:round;-inkscape-stroke:none"
           d="m 16.302734,22.587891 v 1 h 0.5 3.5 0.5 v -1 h -0.5 -3.5 z"
           id="path13886-0" />
        <path
           style="color:#000000;fill:#595959;fill-opacity:1;stroke:none;-inkscape-stroke:none"
           d="m 21.802734,22.587891 v 1 h 1 v -1 z"
           id="path3916-9" />
      </g>
    </g>
  </g>
  <g
     inkscape:groupmode="layer"
     id="layer:rain-1"
     inkscape:label="rain-1"
     style="display:inline">
    <path
       id="path4454-7"
       style="color:#000000;fill:#000000;stroke:none;stroke-opacity:1;-inkscape-stroke:none"
       d="m 7.1427165,18.999874 -0.7141683,1.999878 h 1.0004557 l 0.7141683,-1.999878 z m -1.4283366,4.000272 -0.7141683,1.999878 h 0.999939 l 0.7141682,-1.999878 z" />
    <use
       x="0"
       y="0"
       xlink:href="#path4454-7"
       id="use1500"
       transform="translate(2.9997884)" />
    <use
       x="0"
       y="0"
       xlink:href="#path4454-7"
       id="use1502"
       transform="translate(5.9997884)" />
    <use
       x="0"
       y="0"
       xlink:href="#path4454-7"
       id="use1504"
       transform="translate(8.9997884)" />
  </g>
  <g
     inkscape:groupmode="layer"
     id="layer:rain-2"
     inkscape:label="rain-2"
     style="display:inline">
    <g
       id="g527">
      <g
         id="g4467"
         style="display:inline;stroke:#000000;stroke-opacity:1"
         transform="translate(-0.31151702)">
        <path
           style="color:#000000;fill:#000000;stroke:none;-inkscape-stroke:none"
           d="m 7.453167,19 -2.14165,6 h 1 l 2.14165,-6 z"
           id="path4454"
           sodipodi:nodetypes="ccccc" />
        <use
           x="0"
           y="0"
           xlink:href="#path4454"
           id="use458"
           transform="translate(3)" />
      </g>
      <use
         x="0"
         y="0"
         xlink:href="#g4467"
         id="use521"
         transform="translate(6)" />
    </g>
  </g>
  <g
     inkscape:groupmode="layer"
     id="layer:snow-1"
     inkscape:label="snow-1"
     style="display:inline">
    <path
       style="display:inline;fill:#ffffff;fill-opacity:1;stroke:none;stroke-width:0.7;stroke-linecap:round;stroke-dasharray:none;stop-color:#000000"
       d="m 7.2541246,17.815988 4.7792934,-0.0954 -2.7401894,7.623257 -4.7668232,-0.0058 z"
       id="path1067"
       sodipodi:nodetypes="ccccc" />
    <g
       id="g1941-3"
       transform="translate(1.0297659,1.893796)"
       style="display:inline">
      <path
         style="opacity:1;fill:none;fill-opacity:1;stroke:#000000;stroke-width:0.7;stroke-linecap:butt;stroke-dasharray:none;stroke-opacity:1"
         d="m 7.4522849,18.106204 v 4"
         id="path1935-6" />
      <path
         style="opacity:1;fill:none;fill-opacity:1;stroke:#000000;stroke-width:0.7;stroke-linecap:butt;stroke-dasharray:none;stroke-opacity:1"
         d="m 9.1843357,21.106204 -3.4641016,-2"
         id="path1937-7" />
      <path
         style="opacity:1;fill:none;fill-opacity:1;stroke:#000000;stroke-width:0.7;stroke-linecap:butt;stroke-dasharray:none;stroke-opacity:1"
         d="m 5.7202341,21.106204 3.4641016,-2"
         id="path1939-5" />
    </g>
  </g>
  <g
     inkscape:groupmode="layer"
     id="layer:snow-2"
     inkscape:label="snow-2"
     style="display:inline">
    <g
       id="g1874"
       transform="translate(1.0297659,1.893796)"
       style="stroke-width:0.7;stroke-dasharray:none">
      <path
         style="opacity:1;fill:none;fill-opacity:1;stroke:#000000;stroke-width:0.7;stroke-linecap:butt;stroke-dasharray:none;stroke-opacity:1"
         d="m 7.4522849,18.106204 v 4"
         id="path1267" />
      <path
         style="opacity:1;fill:none;fill-opacity:1;stroke:#000000;stroke-width:0.7;stroke-linecap:butt;stroke-dasharray:none;stroke-opacity:1"
         d="m 9.1843357,21.106204 -3.4641016,-2"
         id="path1867" />
      <path
         style="opacity:1;fill:none;fill-opacity:1;stroke:#000000;stroke-width:0.7;stroke-linecap:butt;stroke-dasharray:none;stroke-opacity:1"
         d="m 5.7202341,21.106204 3.4641016,-2"
         id="path1869" />
    </g>
    <g
       id="g1941"
       transform="translate(7.0297659,-0.106204)">
      <path
         style="opacity:1;fill:none;fill-opacity:1;stroke:#000000;stroke-width:0.7;stroke-linecap:butt;stroke-dasharray:none;stroke-opacity:1"
         d="m 7.4522849,18.106204 v 4"
         id="path1935" />
      <path
         style="opacity:1;fill:none;fill-opacity:1;stroke:#000000;stroke-width:0.7;stroke-linecap:butt;stroke-dasharray:none;stroke-opacity:1"
         d="m 9.1843357,21.106204 -3.4641016,-2"
         id="path1937" />
      <path
         style="opacity:1;fill:none;fill-opacity:1;stroke:#000000;stroke-width:0.7;stroke-linecap:butt;stroke-dasharray:none;stroke-opacity:1"
         d="m 5.7202341,21.106204 3.4641016,-2"
         id="path1939" />
    </g>
  </g>
  <g
     inkscape:groupmode="layer"
     id="layer:thunderstorm-1"
     inkscape:label="thunderstorm-1"
     style="display:inline"
     transform="translate(-5.42802,17.505705)">
    <g
       id="g15571"
       transform="translate(-28.407391,-27.126865)"
       style="stroke:#7e7e7e;stroke-linejoin:miter;stroke-opacity:1">
      <path
         id="path14390"
         style="fill:none;stroke:#7e7e7e;stroke-width:1;stroke-linecap:square;stroke-linejoin:miter;stroke-dasharray:none;stroke-dashoffset:0;stroke-opacity:1"
         d="m 46.045658,19.901108 -1.210143,3.325424 2.999793,-10e-7 -1.53944,4.228682"
         sodipodi:nodetypes="cccc" />
    </g>
  </g>
  <g
     inkscape:groupmode="layer"
     id="layer8"
     inkscape:label="mask"
     sodipodi:insensitive="true"
     style="display:inline">
    <rect
       style="display:inline;fill:#ffffff;fill-opacity:1;stroke:none;stroke-width:0.802869;stroke-linecap:square;stroke-linejoin:round;stroke-dasharray:none"
       id="rect4530"
       width="5"
       height="30"
       x="-5"
       y="-2.5" />
    <rect
       style="display:inline;fill:#ffffff;fill-opacity:1;stroke:none;stroke-width:0.813026;stroke-linecap:square;stroke-linejoin:round;stroke-dasharray:none"
       id="rect4532"
       width="30"
       height="5"
       x="-2.5"
       y="25" />
    <rect
       style="display:inline;fill:#ffffff;fill-opacity:1;stroke:none;stroke-width:0.640958;stroke-linecap:square;stroke-linejoin:round;stroke-dasharray:none"
       id="rect4534"
       width="5"
       height="30"
       x="25"
       y="-2.5" />
    <rect
       style="display:inline;fill:#ffffff;fill-opacity:1;stroke:none;stroke-width:0.666939;stroke-linecap:square;stroke-linejoin:round;stroke-dasharray:none"
       id="rect4536"
       width="30"
       height="5"
       x="-2.5"
       y="-5" />
  </g>
  <metadata
     id="metadata11870">
    <rdf:RDF>
      <cc:Work
         rdf:about="">
        <cc:license
           rdf:resource="http://creativecommons.org/licenses/by-sa/4.0/" />
      </cc:Work>
      <cc:License
         rdf:about="http://creativecommons.org/licenses/by-sa/4.0/">
        <cc:permits
           rdf:resource="http://creativecommons.org/ns#Reproduction" />
        <cc:permits
           rdf:resource="http://creativecommons.org/ns#Distribution" />
        <cc:requires
           rdf:resource="http://creativecommons.org/ns#Notice" />
        <cc:requires
           rdf:resource="http://creativecommons.org/ns#Attribution" />
        <cc:permits
           rdf:resource="http://creativecommons.org/ns#DerivativeWorks" />
        <cc:requires
           rdf:resource="http://creativecommons.org/ns#ShareAlike" />
      </cc:License>
    </rdf:RDF>
  </metadata>
</svg>
